^F:\JAKE\BITBUCKET PROJECTS\MEGA ENGINE\APPLICATION\MEGA ENGINE\MEGA ENGINE\CAMERA.CPP
/c /ZI /nologo /W3 /WX- /sdl /Od /Oy- /D WIN32 /D _DEBUG /D _WINDOWS /D _UNICODE /D UNICODE /Gm /EHsc /RTC1 /MDd /GS /fp:precise /Zc:wchar_t /Zc:forScope /Fo"DEBUG\\" /Fd"DEBUG\VC120.PDB" /Gd /TP /analyze- F:\JAKE\BITBUCKET PROJECTS\MEGA ENGINE\APPLICATION\MEGA ENGINE\MEGA ENGINE\CAMERA.CPP
^F:\JAKE\BITBUCKET PROJECTS\MEGA ENGINE\APPLICATION\MEGA ENGINE\MEGA ENGINE\CAMERAPOSITIONDATA.CPP
/c /ZI /nologo /W3 /WX- /sdl /Od /Oy- /D WIN32 /D _DEBUG /D _WINDOWS /D _UNICODE /D UNICODE /Gm /EHsc /RTC1 /MDd /GS /fp:precise /Zc:wchar_t /Zc:forScope /Fo"DEBUG\\" /Fd"DEBUG\VC120.PDB" /Gd /TP /analyze- F:\JAKE\BITBUCKET PROJECTS\MEGA ENGINE\APPLICATION\MEGA ENGINE\MEGA ENGINE\CAMERAPOSITIONDATA.CPP
^F:\JAKE\BITBUCKET PROJECTS\MEGA ENGINE\APPLICATION\MEGA ENGINE\MEGA ENGINE\CONSTANTVARIABLEDATAFACTORY.CPP
/c /ZI /nologo /W3 /WX- /sdl /Od /Oy- /D WIN32 /D _DEBUG /D _WINDOWS /D _UNICODE /D UNICODE /Gm /EHsc /RTC1 /MDd /GS /fp:precise /Zc:wchar_t /Zc:forScope /Fo"DEBUG\\" /Fd"DEBUG\VC120.PDB" /Gd /TP /analyze- F:\JAKE\BITBUCKET PROJECTS\MEGA ENGINE\APPLICATION\MEGA ENGINE\MEGA ENGINE\CONSTANTVARIABLEDATAFACTORY.CPP
^F:\JAKE\BITBUCKET PROJECTS\MEGA ENGINE\APPLICATION\MEGA ENGINE\MEGA ENGINE\DEBUGCONSOLE.CPP
/c /ZI /nologo /W3 /WX- /sdl /Od /Oy- /D WIN32 /D _DEBUG /D _WINDOWS /D _UNICODE /D UNICODE /Gm /EHsc /RTC1 /MDd /GS /fp:precise /Zc:wchar_t /Zc:forScope /Fo"DEBUG\\" /Fd"DEBUG\VC120.PDB" /Gd /TP /analyze- F:\JAKE\BITBUCKET PROJECTS\MEGA ENGINE\APPLICATION\MEGA ENGINE\MEGA ENGINE\DEBUGCONSOLE.CPP
^F:\JAKE\BITBUCKET PROJECTS\MEGA ENGINE\APPLICATION\MEGA ENGINE\MEGA ENGINE\DOMAINSHADERSTAGE.CPP
/c /ZI /nologo /W3 /WX- /sdl /Od /Oy- /D WIN32 /D _DEBUG /D _WINDOWS /D _UNICODE /D UNICODE /Gm /EHsc /RTC1 /MDd /GS /fp:precise /Zc:wchar_t /Zc:forScope /Fo"DEBUG\\" /Fd"DEBUG\VC120.PDB" /Gd /TP /analyze- F:\JAKE\BITBUCKET PROJECTS\MEGA ENGINE\APPLICATION\MEGA ENGINE\MEGA ENGINE\DOMAINSHADERSTAGE.CPP
^F:\JAKE\BITBUCKET PROJECTS\MEGA ENGINE\APPLICATION\MEGA ENGINE\MEGA ENGINE\FACTORY.CPP
/c /ZI /nologo /W3 /WX- /sdl /Od /Oy- /D WIN32 /D _DEBUG /D _WINDOWS /D _UNICODE /D UNICODE /Gm /EHsc /RTC1 /MDd /GS /fp:precise /Zc:wchar_t /Zc:forScope /Fo"DEBUG\\" /Fd"DEBUG\VC120.PDB" /Gd /TP /analyze- F:\JAKE\BITBUCKET PROJECTS\MEGA ENGINE\APPLICATION\MEGA ENGINE\MEGA ENGINE\FACTORY.CPP
^F:\JAKE\BITBUCKET PROJECTS\MEGA ENGINE\APPLICATION\MEGA ENGINE\MEGA ENGINE\DIRECT3D.CPP
/c /ZI /nologo /W3 /WX- /sdl /Od /Oy- /D WIN32 /D _DEBUG /D _WINDOWS /D _UNICODE /D UNICODE /Gm /EHsc /RTC1 /MDd /GS /fp:precise /Zc:wchar_t /Zc:forScope /Fo"DEBUG\\" /Fd"DEBUG\VC120.PDB" /Gd /TP /analyze- F:\JAKE\BITBUCKET PROJECTS\MEGA ENGINE\APPLICATION\MEGA ENGINE\MEGA ENGINE\DIRECT3D.CPP
^F:\JAKE\BITBUCKET PROJECTS\MEGA ENGINE\APPLICATION\MEGA ENGINE\MEGA ENGINE\FILE.CPP
/c /ZI /nologo /W3 /WX- /sdl /Od /Oy- /D WIN32 /D _DEBUG /D _WINDOWS /D _UNICODE /D UNICODE /Gm /EHsc /RTC1 /MDd /GS /fp:precise /Zc:wchar_t /Zc:forScope /Fo"DEBUG\\" /Fd"DEBUG\VC120.PDB" /Gd /TP /analyze- F:\JAKE\BITBUCKET PROJECTS\MEGA ENGINE\APPLICATION\MEGA ENGINE\MEGA ENGINE\FILE.CPP
^F:\JAKE\BITBUCKET PROJECTS\MEGA ENGINE\APPLICATION\MEGA ENGINE\MEGA ENGINE\GAMEMASTER.CPP
/c /ZI /nologo /W3 /WX- /sdl /Od /Oy- /D WIN32 /D _DEBUG /D _WINDOWS /D _UNICODE /D UNICODE /Gm /EHsc /RTC1 /MDd /GS /fp:precise /Zc:wchar_t /Zc:forScope /Fo"DEBUG\\" /Fd"DEBUG\VC120.PDB" /Gd /TP /analyze- F:\JAKE\BITBUCKET PROJECTS\MEGA ENGINE\APPLICATION\MEGA ENGINE\MEGA ENGINE\GAMEMASTER.CPP
^F:\JAKE\BITBUCKET PROJECTS\MEGA ENGINE\APPLICATION\MEGA ENGINE\MEGA ENGINE\GEOMETRYSHADERSTAGE.CPP
/c /ZI /nologo /W3 /WX- /sdl /Od /Oy- /D WIN32 /D _DEBUG /D _WINDOWS /D _UNICODE /D UNICODE /Gm /EHsc /RTC1 /MDd /GS /fp:precise /Zc:wchar_t /Zc:forScope /Fo"DEBUG\\" /Fd"DEBUG\VC120.PDB" /Gd /TP /analyze- F:\JAKE\BITBUCKET PROJECTS\MEGA ENGINE\APPLICATION\MEGA ENGINE\MEGA ENGINE\GEOMETRYSHADERSTAGE.CPP
^F:\JAKE\BITBUCKET PROJECTS\MEGA ENGINE\APPLICATION\MEGA ENGINE\MEGA ENGINE\HULLSHADERSTAGE.CPP
/c /ZI /nologo /W3 /WX- /sdl /Od /Oy- /D WIN32 /D _DEBUG /D _WINDOWS /D _UNICODE /D UNICODE /Gm /EHsc /RTC1 /MDd /GS /fp:precise /Zc:wchar_t /Zc:forScope /Fo"DEBUG\\" /Fd"DEBUG\VC120.PDB" /Gd /TP /analyze- F:\JAKE\BITBUCKET PROJECTS\MEGA ENGINE\APPLICATION\MEGA ENGINE\MEGA ENGINE\HULLSHADERSTAGE.CPP
^F:\JAKE\BITBUCKET PROJECTS\MEGA ENGINE\APPLICATION\MEGA ENGINE\MEGA ENGINE\ICONSTANTVARIABLEDATA.CPP
/c /ZI /nologo /W3 /WX- /sdl /Od /Oy- /D WIN32 /D _DEBUG /D _WINDOWS /D _UNICODE /D UNICODE /Gm /EHsc /RTC1 /MDd /GS /fp:precise /Zc:wchar_t /Zc:forScope /Fo"DEBUG\\" /Fd"DEBUG\VC120.PDB" /Gd /TP /analyze- F:\JAKE\BITBUCKET PROJECTS\MEGA ENGINE\APPLICATION\MEGA ENGINE\MEGA ENGINE\ICONSTANTVARIABLEDATA.CPP
^F:\JAKE\BITBUCKET PROJECTS\MEGA ENGINE\APPLICATION\MEGA ENGINE\MEGA ENGINE\INPUTLAYOUT.CPP
/c /ZI /nologo /W3 /WX- /sdl /Od /Oy- /D WIN32 /D _DEBUG /D _WINDOWS /D _UNICODE /D UNICODE /Gm /EHsc /RTC1 /MDd /GS /fp:precise /Zc:wchar_t /Zc:forScope /Fo"DEBUG\\" /Fd"DEBUG\VC120.PDB" /Gd /TP /analyze- F:\JAKE\BITBUCKET PROJECTS\MEGA ENGINE\APPLICATION\MEGA ENGINE\MEGA ENGINE\INPUTLAYOUT.CPP
^F:\JAKE\BITBUCKET PROJECTS\MEGA ENGINE\APPLICATION\MEGA ENGINE\MEGA ENGINE\JSONUTIL.CPP
/c /ZI /nologo /W3 /WX- /sdl /Od /Oy- /D WIN32 /D _DEBUG /D _WINDOWS /D _UNICODE /D UNICODE /Gm /EHsc /RTC1 /MDd /GS /fp:precise /Zc:wchar_t /Zc:forScope /Fo"DEBUG\\" /Fd"DEBUG\VC120.PDB" /Gd /TP /analyze- F:\JAKE\BITBUCKET PROJECTS\MEGA ENGINE\APPLICATION\MEGA ENGINE\MEGA ENGINE\JSONUTIL.CPP
^F:\JAKE\BITBUCKET PROJECTS\MEGA ENGINE\APPLICATION\MEGA ENGINE\MEGA ENGINE\OSCILLATEWORLDDATA.CPP
/c /ZI /nologo /W3 /WX- /sdl /Od /Oy- /D WIN32 /D _DEBUG /D _WINDOWS /D _UNICODE /D UNICODE /Gm /EHsc /RTC1 /MDd /GS /fp:precise /Zc:wchar_t /Zc:forScope /Fo"DEBUG\\" /Fd"DEBUG\VC120.PDB" /Gd /TP /analyze- F:\JAKE\BITBUCKET PROJECTS\MEGA ENGINE\APPLICATION\MEGA ENGINE\MEGA ENGINE\OSCILLATEWORLDDATA.CPP
^F:\JAKE\BITBUCKET PROJECTS\MEGA ENGINE\APPLICATION\MEGA ENGINE\MEGA ENGINE\PIXELSHADERSTAGE.CPP
/c /ZI /nologo /W3 /WX- /sdl /Od /Oy- /D WIN32 /D _DEBUG /D _WINDOWS /D _UNICODE /D UNICODE /Gm /EHsc /RTC1 /MDd /GS /fp:precise /Zc:wchar_t /Zc:forScope /Fo"DEBUG\\" /Fd"DEBUG\VC120.PDB" /Gd /TP /analyze- F:\JAKE\BITBUCKET PROJECTS\MEGA ENGINE\APPLICATION\MEGA ENGINE\MEGA ENGINE\PIXELSHADERSTAGE.CPP
^F:\JAKE\BITBUCKET PROJECTS\MEGA ENGINE\APPLICATION\MEGA ENGINE\MEGA ENGINE\RENDERABLE.CPP
/c /ZI /nologo /W3 /WX- /sdl /Od /Oy- /D WIN32 /D _DEBUG /D _WINDOWS /D _UNICODE /D UNICODE /Gm /EHsc /RTC1 /MDd /GS /fp:precise /Zc:wchar_t /Zc:forScope /Fo"DEBUG\\" /Fd"DEBUG\VC120.PDB" /Gd /TP /analyze- F:\JAKE\BITBUCKET PROJECTS\MEGA ENGINE\APPLICATION\MEGA ENGINE\MEGA ENGINE\RENDERABLE.CPP
^F:\JAKE\BITBUCKET PROJECTS\MEGA ENGINE\APPLICATION\MEGA ENGINE\MEGA ENGINE\JSONSCENE.CPP
/c /ZI /nologo /W3 /WX- /sdl /Od /Oy- /D WIN32 /D _DEBUG /D _WINDOWS /D _UNICODE /D UNICODE /Gm /EHsc /RTC1 /MDd /GS /fp:precise /Zc:wchar_t /Zc:forScope /Fo"DEBUG\\" /Fd"DEBUG\VC120.PDB" /Gd /TP /analyze- F:\JAKE\BITBUCKET PROJECTS\MEGA ENGINE\APPLICATION\MEGA ENGINE\MEGA ENGINE\JSONSCENE.CPP
^F:\JAKE\BITBUCKET PROJECTS\MEGA ENGINE\APPLICATION\MEGA ENGINE\MEGA ENGINE\PIPELINESTATE.CPP
/c /ZI /nologo /W3 /WX- /sdl /Od /Oy- /D WIN32 /D _DEBUG /D _WINDOWS /D _UNICODE /D UNICODE /Gm /EHsc /RTC1 /MDd /GS /fp:precise /Zc:wchar_t /Zc:forScope /Fo"DEBUG\\" /Fd"DEBUG\VC120.PDB" /Gd /TP /analyze- F:\JAKE\BITBUCKET PROJECTS\MEGA ENGINE\APPLICATION\MEGA ENGINE\MEGA ENGINE\PIPELINESTATE.CPP
^F:\JAKE\BITBUCKET PROJECTS\MEGA ENGINE\APPLICATION\MEGA ENGINE\MEGA ENGINE\RENDERTARGET.CPP
/c /ZI /nologo /W3 /WX- /sdl /Od /Oy- /D WIN32 /D _DEBUG /D _WINDOWS /D _UNICODE /D UNICODE /Gm /EHsc /RTC1 /MDd /GS /fp:precise /Zc:wchar_t /Zc:forScope /Fo"DEBUG\\" /Fd"DEBUG\VC120.PDB" /Gd /TP /analyze- F:\JAKE\BITBUCKET PROJECTS\MEGA ENGINE\APPLICATION\MEGA ENGINE\MEGA ENGINE\RENDERTARGET.CPP
^F:\JAKE\BITBUCKET PROJECTS\MEGA ENGINE\APPLICATION\MEGA ENGINE\MEGA ENGINE\RENDERER.CPP
/c /ZI /nologo /W3 /WX- /sdl /Od /Oy- /D WIN32 /D _DEBUG /D _WINDOWS /D _UNICODE /D UNICODE /Gm /EHsc /RTC1 /MDd /GS /fp:precise /Zc:wchar_t /Zc:forScope /Fo"DEBUG\\" /Fd"DEBUG\VC120.PDB" /Gd /TP /analyze- F:\JAKE\BITBUCKET PROJECTS\MEGA ENGINE\APPLICATION\MEGA ENGINE\MEGA ENGINE\RENDERER.CPP
^F:\JAKE\BITBUCKET PROJECTS\MEGA ENGINE\APPLICATION\MEGA ENGINE\MEGA ENGINE\ROTATEWORLDDATA.CPP
/c /ZI /nologo /W3 /WX- /sdl /Od /Oy- /D WIN32 /D _DEBUG /D _WINDOWS /D _UNICODE /D UNICODE /Gm /EHsc /RTC1 /MDd /GS /fp:precise /Zc:wchar_t /Zc:forScope /Fo"DEBUG\\" /Fd"DEBUG\VC120.PDB" /Gd /TP /analyze- F:\JAKE\BITBUCKET PROJECTS\MEGA ENGINE\APPLICATION\MEGA ENGINE\MEGA ENGINE\ROTATEWORLDDATA.CPP
^F:\JAKE\BITBUCKET PROJECTS\MEGA ENGINE\APPLICATION\MEGA ENGINE\MEGA ENGINE\SHADOWTEXDATA.CPP
/c /ZI /nologo /W3 /WX- /sdl /Od /Oy- /D WIN32 /D _DEBUG /D _WINDOWS /D _UNICODE /D UNICODE /Gm /EHsc /RTC1 /MDd /GS /fp:precise /Zc:wchar_t /Zc:forScope /Fo"DEBUG\\" /Fd"DEBUG\VC120.PDB" /Gd /TP /analyze- F:\JAKE\BITBUCKET PROJECTS\MEGA ENGINE\APPLICATION\MEGA ENGINE\MEGA ENGINE\SHADOWTEXDATA.CPP
^F:\JAKE\BITBUCKET PROJECTS\MEGA ENGINE\APPLICATION\MEGA ENGINE\MEGA ENGINE\SKYBOXWVPDATA.CPP
/c /ZI /nologo /W3 /WX- /sdl /Od /Oy- /D WIN32 /D _DEBUG /D _WINDOWS /D _UNICODE /D UNICODE /Gm /EHsc /RTC1 /MDd /GS /fp:precise /Zc:wchar_t /Zc:forScope /Fo"DEBUG\\" /Fd"DEBUG\VC120.PDB" /Gd /TP /analyze- F:\JAKE\BITBUCKET PROJECTS\MEGA ENGINE\APPLICATION\MEGA ENGINE\MEGA ENGINE\SKYBOXWVPDATA.CPP
^F:\JAKE\BITBUCKET PROJECTS\MEGA ENGINE\APPLICATION\MEGA ENGINE\MEGA ENGINE\TIMER.CPP
/c /ZI /nologo /W3 /WX- /sdl /Od /Oy- /D WIN32 /D _DEBUG /D _WINDOWS /D _UNICODE /D UNICODE /Gm /EHsc /RTC1 /MDd /GS /fp:precise /Zc:wchar_t /Zc:forScope /Fo"DEBUG\\" /Fd"DEBUG\VC120.PDB" /Gd /TP /analyze- F:\JAKE\BITBUCKET PROJECTS\MEGA ENGINE\APPLICATION\MEGA ENGINE\MEGA ENGINE\TIMER.CPP
^F:\JAKE\BITBUCKET PROJECTS\MEGA ENGINE\APPLICATION\MEGA ENGINE\MEGA ENGINE\UNSTRUCTUREDFUNCTIONS.CPP
/c /ZI /nologo /W3 /WX- /sdl /Od /Oy- /D WIN32 /D _DEBUG /D _WINDOWS /D _UNICODE /D UNICODE /Gm /EHsc /RTC1 /MDd /GS /fp:precise /Zc:wchar_t /Zc:forScope /Fo"DEBUG\\" /Fd"DEBUG\VC120.PDB" /Gd /TP /analyze- F:\JAKE\BITBUCKET PROJECTS\MEGA ENGINE\APPLICATION\MEGA ENGINE\MEGA ENGINE\UNSTRUCTUREDFUNCTIONS.CPP
^F:\JAKE\BITBUCKET PROJECTS\MEGA ENGINE\APPLICATION\MEGA ENGINE\MEGA ENGINE\VERTEXBUFFER.CPP
/c /ZI /nologo /W3 /WX- /sdl /Od /Oy- /D WIN32 /D _DEBUG /D _WINDOWS /D _UNICODE /D UNICODE /Gm /EHsc /RTC1 /MDd /GS /fp:precise /Zc:wchar_t /Zc:forScope /Fo"DEBUG\\" /Fd"DEBUG\VC120.PDB" /Gd /TP /analyze- F:\JAKE\BITBUCKET PROJECTS\MEGA ENGINE\APPLICATION\MEGA ENGINE\MEGA ENGINE\VERTEXBUFFER.CPP
^F:\JAKE\BITBUCKET PROJECTS\MEGA ENGINE\APPLICATION\MEGA ENGINE\MEGA ENGINE\VERTEXSHADERSTAGE.CPP
/c /ZI /nologo /W3 /WX- /sdl /Od /Oy- /D WIN32 /D _DEBUG /D _WINDOWS /D _UNICODE /D UNICODE /Gm /EHsc /RTC1 /MDd /GS /fp:precise /Zc:wchar_t /Zc:forScope /Fo"DEBUG\\" /Fd"DEBUG\VC120.PDB" /Gd /TP /analyze- F:\JAKE\BITBUCKET PROJECTS\MEGA ENGINE\APPLICATION\MEGA ENGINE\MEGA ENGINE\VERTEXSHADERSTAGE.CPP
^F:\JAKE\BITBUCKET PROJECTS\MEGA ENGINE\APPLICATION\MEGA ENGINE\MEGA ENGINE\VIEWDATA.CPP
/c /ZI /nologo /W3 /WX- /sdl /Od /Oy- /D WIN32 /D _DEBUG /D _WINDOWS /D _UNICODE /D UNICODE /Gm /EHsc /RTC1 /MDd /GS /fp:precise /Zc:wchar_t /Zc:forScope /Fo"DEBUG\\" /Fd"DEBUG\VC120.PDB" /Gd /TP /analyze- F:\JAKE\BITBUCKET PROJECTS\MEGA ENGINE\APPLICATION\MEGA ENGINE\MEGA ENGINE\VIEWDATA.CPP
^F:\JAKE\BITBUCKET PROJECTS\MEGA ENGINE\APPLICATION\MEGA ENGINE\MEGA ENGINE\VIEWPROJDATA.CPP
/c /ZI /nologo /W3 /WX- /sdl /Od /Oy- /D WIN32 /D _DEBUG /D _WINDOWS /D _UNICODE /D UNICODE /Gm /EHsc /RTC1 /MDd /GS /fp:precise /Zc:wchar_t /Zc:forScope /Fo"DEBUG\\" /Fd"DEBUG\VC120.PDB" /Gd /TP /analyze- F:\JAKE\BITBUCKET PROJECTS\MEGA ENGINE\APPLICATION\MEGA ENGINE\MEGA ENGINE\VIEWPROJDATA.CPP
^F:\JAKE\BITBUCKET PROJECTS\MEGA ENGINE\APPLICATION\MEGA ENGINE\MEGA ENGINE\WINDOW.CPP
/c /ZI /nologo /W3 /WX- /sdl /Od /Oy- /D WIN32 /D _DEBUG /D _WINDOWS /D _UNICODE /D UNICODE /Gm /EHsc /RTC1 /MDd /GS /fp:precise /Zc:wchar_t /Zc:forScope /Fo"DEBUG\\" /Fd"DEBUG\VC120.PDB" /Gd /TP /analyze- F:\JAKE\BITBUCKET PROJECTS\MEGA ENGINE\APPLICATION\MEGA ENGINE\MEGA ENGINE\WINDOW.CPP
^F:\JAKE\BITBUCKET PROJECTS\MEGA ENGINE\APPLICATION\MEGA ENGINE\MEGA ENGINE\WINMAIN.CPP
/c /ZI /nologo /W3 /WX- /sdl /Od /Oy- /D WIN32 /D _DEBUG /D _WINDOWS /D _UNICODE /D UNICODE /Gm /EHsc /RTC1 /MDd /GS /fp:precise /Zc:wchar_t /Zc:forScope /Fo"DEBUG\\" /Fd"DEBUG\VC120.PDB" /Gd /TP /analyze- F:\JAKE\BITBUCKET PROJECTS\MEGA ENGINE\APPLICATION\MEGA ENGINE\MEGA ENGINE\WINMAIN.CPP
^F:\JAKE\BITBUCKET PROJECTS\MEGA ENGINE\APPLICATION\MEGA ENGINE\MEGA ENGINE\WORLDINVERSETRANSPOSEDATA.CPP
/c /ZI /nologo /W3 /WX- /sdl /Od /Oy- /D WIN32 /D _DEBUG /D _WINDOWS /D _UNICODE /D UNICODE /Gm /EHsc /RTC1 /MDd /GS /fp:precise /Zc:wchar_t /Zc:forScope /Fo"DEBUG\\" /Fd"DEBUG\VC120.PDB" /Gd /TP /analyze- F:\JAKE\BITBUCKET PROJECTS\MEGA ENGINE\APPLICATION\MEGA ENGINE\MEGA ENGINE\WORLDINVERSETRANSPOSEDATA.CPP
^F:\JAKE\BITBUCKET PROJECTS\MEGA ENGINE\APPLICATION\MEGA ENGINE\MEGA ENGINE\WORLDVIEWDATA.CPP
/c /ZI /nologo /W3 /WX- /sdl /Od /Oy- /D WIN32 /D _DEBUG /D _WINDOWS /D _UNICODE /D UNICODE /Gm /EHsc /RTC1 /MDd /GS /fp:precise /Zc:wchar_t /Zc:forScope /Fo"DEBUG\\" /Fd"DEBUG\VC120.PDB" /Gd /TP /analyze- F:\JAKE\BITBUCKET PROJECTS\MEGA ENGINE\APPLICATION\MEGA ENGINE\MEGA ENGINE\WORLDVIEWDATA.CPP
^F:\JAKE\BITBUCKET PROJECTS\MEGA ENGINE\APPLICATION\MEGA ENGINE\MEGA ENGINE\WORLDVIEWPROJDATA.CPP
/c /ZI /nologo /W3 /WX- /sdl /Od /Oy- /D WIN32 /D _DEBUG /D _WINDOWS /D _UNICODE /D UNICODE /Gm /EHsc /RTC1 /MDd /GS /fp:precise /Zc:wchar_t /Zc:forScope /Fo"DEBUG\\" /Fd"DEBUG\VC120.PDB" /Gd /TP /analyze- F:\JAKE\BITBUCKET PROJECTS\MEGA ENGINE\APPLICATION\MEGA ENGINE\MEGA ENGINE\WORLDVIEWPROJDATA.CPP
